<svg xmlns="http://www.w3.org/2000/svg" xmlns:xlink="http://www.w3.org/1999/xlink" version="1.1" viewBox="0 0 100 100">
<rect x="0%" y="50%" width="100%" height="100%" fill="rgba(218,225,91,.75)"/>
</svg>
